{
	"main_script": "presentation.js",
	"icon": "presentation.webp",
	"width": 800,
	"height": 450,
	"animation": false,
	"dependencies": [
	],
	"title": "Presentation",
	"version": "1.0.0",
	"description": "Experiments showing online presentation",
	"keywords": [ "online", "presentation", "microsoft", "google" ],
	"author": "Luc Renambot <renambot@gmail.com>",
	"license": "SAGE2-Software-License"
}
